Tutorial 2_Code Review
…
# get all resources for this package
resources <- list_package_resources("030dff58-8212-4b80-b79e-0701b59af918")

# identify datastore resources; by default, Toronto Open Data sets datastore resource format to CSV for non-geospatial and GeoJSON for geospatial resources
datastore_resources <- filter(resources, tolower(format) %in% c('csv', 'geojson'))

# load the first datastore resource as a sample
data <- filter(datastore_resources, row_number()==1) %>% get_resource()
data

# A tibble: 66 × 7
   `_id` `Approved IMIT Property`  Registered Property …¹ First Year of Grant …²
   <int> <chr>                     <chr>                  <chr>                 
 1     1 100 Adelaide Street West  OREC (RAC) HOLDINGS, … 2018                  
 2     2 101 Commissioners Street  City of Toronto Econo… TBD                   
 3     3 106 North Queen Street    Future Bakery Limited  TBD                   
 4     4 120 Bremner Blvd          bcIMC HOLDCO (2007) I… 2016                  
 5     5 125-155 Queens Quay E     Waterfront Toronto     TBD                   
 6     6 1295 Ormont Drive         Caplink Limited        2018                  
 7     7 130-132 Queens Quay E     Daniels Waterfront Co… TBD                   
 8     8 134 Peter Street          1302207 Ontario Limit… 2016                  
 9     9 1395 Tapscott Rd          First Gulf King Stree… TBD                   
10    10 143-177 Lake Shore Blvd … Daniels QQ Corporation TBD                   
# ℹ 56 more rows
# ℹ abbreviated names: ¹​`Registered Property Owner`,
#   ²​`First Year of Grant Period`
# ℹ 3 more variables: `Proposed Total Gross Floor Area (sq.ft.)` <int>,
#   `Is the site considered a Brownfield?` <chr>, `IMIT Eligible Use` <chr>
…
